<svg width="20" height="20" viewBox="0 0 20 20" fill="none" xmlns="http://www.w3.org/2000/svg">
<path d="M18.0001 7.373V14.5C18.0001 15.8807 16.8808 17 15.5001 17H4.50008C3.11937 17 2 15.8807 2 14.5V7.373L9.74657 11.931C9.90304 12.023 10.0971 12.023 10.2536 11.931L18.0001 7.373ZM15.5001 4C16.7871 4 17.847 4.9726 17.9849 6.22293L10.0001 10.9199L2.01526 6.22293C2.15312 4.9726 3.21302 4 4.50008 4H15.5001Z" fill="#0C0C3D"/>
</svg>
